%YAML 1.1
%TAG !u! tag:unity3d.com,2011:
--- !u!1001 &100100000
Prefab:
  m_ObjectHideFlags: 1
  serializedVersion: 2
  m_Modification:
    m_TransformParent: {fileID: 0}
    m_Modifications: []
    m_RemovedComponents: []
  m_ParentPrefab: {fileID: 0}
  m_RootGameObject: {fileID: 1907273487915626}
  m_IsPrefabParent: 1
--- !u!1 &1907273487915626
GameObject:
  m_ObjectHideFlags: 0
  m_PrefabParentObject: {fileID: 0}
  m_PrefabInternal: {fileID: 100100000}
  serializedVersion: 5
  m_Component:
  - component: {fileID: 4967708960565700}
  - component: {fileID: 114614234690834654}
  m_Layer: 0
  m_Name: ModuleController
  m_TagString: Untagged
  m_Icon: {fileID: 0}
  m_NavMeshLayer: 0
  m_StaticEditorFlags: 0
  m_IsActive: 1
--- !u!4 &4967708960565700
Transform:
  m_ObjectHideFlags: 1
  m_PrefabParentObject: {fileID: 0}
  m_PrefabInternal: {fileID: 100100000}
  m_GameObject: {fileID: 1907273487915626}
  m_LocalRotation: {x: 0, y: 0, z: 0, w: 1}
  m_LocalPosition: {x: 0, y: 0, z: 0}
  m_LocalScale: {x: 1, y: 1, z: 1}
  m_Children: []
  m_Father: {fileID: 0}
  m_RootOrder: 0
  m_LocalEulerAnglesHint: {x: 0, y: 0, z: 0}
--- !u!114 &114614234690834654
MonoBehaviour:
  m_ObjectHideFlags: 1
  m_PrefabParentObject: {fileID: 0}
  m_PrefabInternal: {fileID: 100100000}
  m_GameObject: {fileID: 1907273487915626}
  m_Enabled: 1
  m_EditorHideFlags: 0
  m_Script: {fileID: 11500000, guid: 588dcb7dfe2e2409781863eecf0a03e5, type: 3}
  m_Name: 
  m_EditorClassIdentifier: 
  levelName: Example
  parser: {fileID: 0}
  sound: {fileID: 0}
  events: {fileID: 0}
  sprites: {fileID: 0}
  map: {fileID: 0}
  unit: {fileID: 0}
  ui: {fileID: 0}
  cam: {fileID: 0}
  turn: {fileID: 0}
  abilities: {fileID: 0}
  combat: {fileID: 0}
  gameEnd: {fileID: 0}
  movement: {fileID: 0}
  save: {fileID: 0}
  stats: {fileID: 0}
  tuning: {fileID: 0}
  legends: {fileID: 0}
  notifications: {fileID: 0}
